1. Summary
Meeting title	DB
Attended participants	1
Start time	10/10/22, 8:28:48 AM
End time	10/10/22, 8:29:00 AM
Meeting duration	12s
Average attendance time	3s

2. Participants
Name	First join	Last leave	In-meeting duration	Email	Participant ID (UPN)	Role
Andres Galvis Bolivar	10/10/22, 8:28:56 AM	10/10/22, 8:29:00 AM	3s	Andres.Galvis@jala.university	Andres.Galvis@jala.university	Presenter

3. In-Meeting activities
Name	Join time	Leave time	Duration	Email	Role
Andres Galvis Bolivar	10/10/22, 8:28:56 AM	10/10/22, 8:29:00 AM	3s	Andres.Galvis@jala.university	Presenter
