1. Summary
Meeting title	DB
Attended participants	9
Start time	10/13/22, 8:28:57 AM
End time	10/13/22, 10:51:44 AM
Meeting duration	2h 22m 47s
Average attendance time	1h 44m 36s

2. Participants
Name	First join	Last leave	In-meeting duration	Email	Participant ID (UPN)	Role
Diego Jauregui Salvatierra	10/13/22, 8:29:05 AM	10/13/22, 10:11:11 AM	1h 42m 6s	Diego.Jauregui@jala.university	Diego.Jauregui@jala.university	Presenter
Sergio Mallea Morales	10/13/22, 8:30:13 AM	10/13/22, 10:49:02 AM	1h 41m 18s	Sergio.Mallea@jala.university	Sergio.Mallea@jala.university	Presenter
Maria Marquina Guevara	10/13/22, 8:30:21 AM	10/13/22, 10:33:54 AM	1h 40m 51s	Maria.Marquina@jala.university	Maria.Marquina@jala.university	Organizer
Martin Ferreyra	10/13/22, 8:30:38 AM	10/13/22, 10:51:44 AM	2h 21m 5s	Martin.Ferreyra@jala.university	Martin.Ferreyra@jala.university	Presenter
Adrian Clavijo Lopez	10/13/22, 8:30:39 AM	10/13/22, 10:11:10 AM	1h 40m 30s	Adrian.Clavijo@jala.university	Adrian.Clavijo@jala.university	Presenter
Andres Galvis Bolivar	10/13/22, 8:30:42 AM	10/13/22, 10:11:19 AM	1h 40m 36s	Andres.Galvis@jala.university	Andres.Galvis@jala.university	Presenter
Camilo Villalba Sanz	10/13/22, 8:31:06 AM	10/13/22, 10:11:11 AM	1h 40m 4s	Camilo.Villalba@jala.university	Camilo.Villalba@jala.university	Presenter
Jesus Vallecilla Solano	10/13/22, 8:31:49 AM	10/13/22, 10:11:14 AM	1h 39m 24s	Jesus.Vallecilla@jala.university	Jesus.Vallecilla@jala.university	Presenter
Jason Pineda Serna	10/13/22, 8:36:08 AM	10/13/22, 10:11:37 AM	1h 35m 28s	Jason.Pineda@jala.university	Jason.Pineda@jala.university	Presenter

3. In-Meeting activities
Name	Join time	Leave time	Duration	Email	Role
Diego Jauregui Salvatierra	10/13/22, 8:29:05 AM	10/13/22, 10:11:11 AM	1h 42m 6s	Diego.Jauregui@jala.university	Presenter
Sergio Mallea Morales	10/13/22, 8:30:13 AM	10/13/22, 10:11:14 AM	1h 41m	Sergio.Mallea@jala.university	Presenter
Sergio Mallea Morales	10/13/22, 10:48:44 AM	10/13/22, 10:49:02 AM	18s	Sergio.Mallea@jala.university	Presenter
Maria Marquina Guevara	10/13/22, 8:30:21 AM	10/13/22, 10:11:10 AM	1h 40m 48s	Maria.Marquina@jala.university	Organizer
Maria Marquina Guevara	10/13/22, 10:33:50 AM	10/13/22, 10:33:54 AM	3s	Maria.Marquina@jala.university	Organizer
Martin Ferreyra	10/13/22, 8:30:38 AM	10/13/22, 10:51:44 AM	2h 21m 5s	Martin.Ferreyra@jala.university	Presenter
Adrian Clavijo Lopez	10/13/22, 8:30:39 AM	10/13/22, 10:11:10 AM	1h 40m 30s	Adrian.Clavijo@jala.university	Presenter
Andres Galvis Bolivar	10/13/22, 8:30:42 AM	10/13/22, 10:11:19 AM	1h 40m 36s	Andres.Galvis@jala.university	Presenter
Camilo Villalba Sanz	10/13/22, 8:31:06 AM	10/13/22, 10:11:11 AM	1h 40m 4s	Camilo.Villalba@jala.university	Presenter
Jesus Vallecilla Solano	10/13/22, 8:31:49 AM	10/13/22, 10:11:14 AM	1h 39m 24s	Jesus.Vallecilla@jala.university	Presenter
Jason Pineda Serna	10/13/22, 8:36:08 AM	10/13/22, 10:11:37 AM	1h 35m 28s	Jason.Pineda@jala.university	Presenter
