1. Summary
Meeting title	LEX Workshop
Attended participants	8
Start time	5/25/22, 10:30:48 AM
End time	5/25/22, 11:39:22 AM
Meeting duration	1h 8m 34s
Average attendance time	1h 6m 32s

2. Participants
Name	First join	Last leave	In-meeting duration	Email	Participant ID (UPN)	Role
Joaquin Aman Alvarez	5/25/22, 10:30:53 AM	5/25/22, 11:39:17 AM	1h 8m 24s	Joaquin.Aman@jala-foundation.org	Joaquin.Aman@jala-foundation.org	Presenter
Maria Marquina Guevara	5/25/22, 10:31:08 AM	5/25/22, 11:39:18 AM	1h 8m 9s	Maria.Marquina@fundacion-jala.org	Maria.Marquina@fundacion-jala.org	Organizer
Luis Becerra Vazquez	5/25/22, 10:31:09 AM	5/25/22, 11:39:20 AM	1h 8m 10s	Luis.Becerra@jala-foundation.org	Luis.Becerra@jala-foundation.org	Presenter
Leonardo Villalba Ferrer	5/25/22, 10:33:39 AM	5/25/22, 11:39:19 AM	1h 5m 39s	Leonardo.Villalba@jala-foundation.org	Leonardo.Villalba@jala-foundation.org	Presenter
Kevin Cardenas Rodriguez	5/25/22, 10:33:44 AM	5/25/22, 11:39:21 AM	1h 5m 37s	Kevin.Cardenas@jala-foundation.org	Kevin.Cardenas@jala-foundation.org	Presenter
Martin Gonzalez Torrilla	5/25/22, 10:33:50 AM	5/25/22, 11:39:19 AM	1h 5m 28s	Martin.Gonzalez@jala-foundation.org	Martin.Gonzalez@jala-foundation.org	Presenter
Cesar Illanes Argote	5/25/22, 10:33:54 AM	5/25/22, 11:39:20 AM	1h 5m 25s	Cesar.Illanes@jala-foundation.org	Cesar.Illanes@jala-foundation.org	Presenter
Martin Pavesio Sabini	5/25/22, 10:33:55 AM	5/25/22, 11:39:22 AM	1h 5m 27s	Martin.Pavesio@jala-foundation.org	Martin.Pavesio@jala-foundation.org	Presenter

3. In-Meeting activities
Name	Join time	Leave time	Duration	Email	Role
Joaquin Aman Alvarez	5/25/22, 10:30:53 AM	5/25/22, 11:39:17 AM	1h 8m 24s	Joaquin.Aman@jala-foundation.org	Presenter
Maria Marquina Guevara	5/25/22, 10:31:08 AM	5/25/22, 11:39:18 AM	1h 8m 9s	Maria.Marquina@fundacion-jala.org	Organizer
Luis Becerra Vazquez	5/25/22, 10:31:09 AM	5/25/22, 11:39:20 AM	1h 8m 10s	Luis.Becerra@jala-foundation.org	Presenter
Leonardo Villalba Ferrer	5/25/22, 10:33:39 AM	5/25/22, 11:39:19 AM	1h 5m 39s	Leonardo.Villalba@jala-foundation.org	Presenter
Kevin Cardenas Rodriguez	5/25/22, 10:33:44 AM	5/25/22, 11:39:21 AM	1h 5m 37s	Kevin.Cardenas@jala-foundation.org	Presenter
Martin Gonzalez Torrilla	5/25/22, 10:33:50 AM	5/25/22, 11:39:19 AM	1h 5m 28s	Martin.Gonzalez@jala-foundation.org	Presenter
Cesar Illanes Argote	5/25/22, 10:33:54 AM	5/25/22, 11:39:20 AM	1h 5m 25s	Cesar.Illanes@jala-foundation.org	Presenter
Martin Pavesio Sabini	5/25/22, 10:33:55 AM	5/25/22, 11:39:22 AM	1h 5m 27s	Martin.Pavesio@jala-foundation.org	Presenter
